<svg xmlns="http://www.w3.org/2000/svg" width="129.178" height="109.496" viewBox="0 0 129.178 109.496">
  <g id="Group_233" data-name="Group 233" transform="translate(339.458 -2097.292)">
    <path id="Path_288" data-name="Path 288" d="M-273.965,2097.292c.5.04,1.005.082,1.508.118a45.966,45.966,0,0,1,22.366,7.627,46.253,46.253,0,0,1,16.082,18.107,46.363,46.363,0,0,1,4.362,13.474,45.272,45.272,0,0,1,.559,9.264,44.617,44.617,0,0,1-5.947,20.589,43.984,43.984,0,0,1-16.232,16.347,44.859,44.859,0,0,1-14.089,5.29,45,45,0,0,1-10.338.819,44.987,44.987,0,0,1-18.249-4.5,46.428,46.428,0,0,1-24.1-26.774,44.093,44.093,0,0,1-2.28-9.58,45.428,45.428,0,0,1-.1-10.725,44.6,44.6,0,0,1,7.893-21,43.927,43.927,0,0,1,17.911-14.925,43.439,43.439,0,0,1,12.23-3.62c1.553-.217,3.123-.313,4.685-.465.106-.011.21-.035.315-.053Zm-1.6,1.638a43.717,43.717,0,0,0-30.752,12.578l5.425,5.419a36.82,36.82,0,0,1,11.6-7.782,36.972,36.972,0,0,1,13.731-2.947ZM-237.937,2144a37.184,37.184,0,0,1-10.6,25.035l5.4,5.42A43.688,43.688,0,0,0-230.687,2144Zm-69.428-31.413a43.719,43.719,0,0,0-11.684,29.91c.569,0,1.064-.013,1.558.006.226.008.285-.081.324-.285a5.563,5.563,0,0,1,.264-.957.6.6,0,0,1,.557-.363,1.261,1.261,0,0,0,.607-.286c.217-.17.376-.415.587-.6s.384-.138.494.132c.084.206.145.422.223.652l.418-.348c.2.665.373,1.268.563,1.915.272-.407.283-.408.621-.143a.5.5,0,0,0,.131.093c.054.018.158.031.168.01a.246.246,0,0,0,.015-.194c-.055-.1-.167-.178-.21-.282a1.673,1.673,0,0,1-.17-.6c0-.288.157-.348.4-.188s.468.328.737.518a37.109,37.109,0,0,1,2.831-12.685,36.787,36.787,0,0,1,6.992-10.891Zm1.736,61.709a45.309,45.309,0,0,0,30.041,12.989v-7.22a37.223,37.223,0,0,1-25.2-10.62Zm74.92-31.705a45.407,45.407,0,0,0-12.74-29.974c-1.637,1.647-3.234,3.256-4.841,4.874a36.993,36.993,0,0,1,7.533,11.545,36.984,36.984,0,0,1,2.807,13.555Zm-18.87,27.483c-.892.743-1.767,1.47-2.64,2.2a.721.721,0,0,0-.152.206c-.206.377-.411.755-.612,1.135a6.39,6.39,0,0,1-2.253,2.523c-1,.624-2.035,1.2-3.076,1.76a14.457,14.457,0,0,1-1.822.8.632.632,0,0,1-.868-.261.63.63,0,0,0-.347-.209c-.245-.08-.5-.118-.748-.2a1.4,1.4,0,0,0-.908.041,36.255,36.255,0,0,1-9.748,1.907l-1.4.076v7.253a43.746,43.746,0,0,0,29.953-11.825Zm.235-53.644,4.837-4.868a45.276,45.276,0,0,0-29.634-12.6v7.238c.916,0,1.807.013,2.7-.009a1.6,1.6,0,0,0,.674-.19,2.947,2.947,0,0,1,2.468-.1,1.806,1.806,0,0,1,.376.253l-.021.092c-.244.068-.484.15-.731.2s-.487.069-.731.1A37.482,37.482,0,0,1-249.344,2116.433Zm-52.456,51.959a.961.961,0,0,0-.076-.095,36.967,36.967,0,0,1-8.837-16.372.368.368,0,0,0-.3-.317.583.583,0,0,1-.333-.3,2.759,2.759,0,0,1-.145-.657c-.068-.432-.125-.865-.186-1.3l-.127-.017c-.389.315-.082.823-.219,1.212-.292-.138-.182-.461-.409-.672a3.854,3.854,0,0,1-1.166-2.141,1.193,1.193,0,0,0-.208-.346l-.143.028-.174,1.646c-.646-.385-.61-1.08-.921-1.575s-.549-1.063-.842-1.644c-.187.211-.354.4-.53.6l-.1-.238a6.608,6.608,0,0,0-.686,3.552c-.232-.961-.414-1.923-.571-2.889a7.414,7.414,0,0,1,.285-2.989h-1.531a45.4,45.4,0,0,0,12.379,29.383Zm26.227-60.611a35.644,35.644,0,0,0-24.207,10.27l4.866,4.863a28.442,28.442,0,0,1,8.85-5.952,28.591,28.591,0,0,1,10.491-2.3Zm-24.072,60.52a35.016,35.016,0,0,0,12.4,7.9,34.7,34.7,0,0,0,11.66,2.234v-6.853c-.1-.006-.187-.008-.27-.015-.953-.082-1.912-.124-2.858-.254a28.289,28.289,0,0,1-13.835-5.883.819.819,0,0,0-.249-.133c-.415-.137-.84-.245-1.246-.4s-.823-.368-1.229-.563a.408.408,0,0,0-.537.1c-1.2,1.218-2.417,2.423-3.627,3.632C-299.5,2168.138-299.565,2168.212-299.645,2168.3Zm29.372-28.44c0-.073.016-.125,0-.156-.088-.142-.186-.279-.293-.437-.1.075-.2.141-.284.214-.49.4-.775.3-.916-.346a1.392,1.392,0,0,1-.012-.289c0-.2,0-.4,0-.588-.689-.149-.7-.15-.677-.772.007-.225-.125-.265-.293-.3-.324-.077-.7-.08-.781-.525a.369.369,0,0,0-.085-.007c-.023.182-.046.365-.069.543a1.042,1.042,0,0,1-1.219-.894c-.054-.329-.076-.663-.125-.992-.054-.371-.059-.717.364-.887-.085-.136-.162-.241-.219-.355s-.093-.236-.145-.372a9.418,9.418,0,0,0-5.041,1.559,2.115,2.115,0,0,0,.272.215c.233.13.474.246.71.371.066.035.124.086.189.123a1.088,1.088,0,0,0,1.267-.244c.079-.1.21-.242.292-.226.235.045.268-.144.382-.246.372-.334.747-.665,1.131-.986a.911.911,0,0,1,.292-.1l.008.044-.892.784.064.077.433-.027a1.979,1.979,0,0,1-.02.756,2.268,2.268,0,0,1-.534.556l.293.257-.508.477a1.446,1.446,0,0,1-1.053,1.323c-.3.063-.6.142-.9.233a.349.349,0,0,0-.207.185c-.128.416-.5.533-.827.709-.269.145-.538.292-.762.415a1.774,1.774,0,0,1-.06.425,1.626,1.626,0,0,1-.245.325l.077.008.074.43c.168.052.168.052.455-.054a.225.225,0,0,1,.3.253,3.452,3.452,0,0,1-.239.524.668.668,0,0,0-1.016-.329.357.357,0,0,1-.191.01.944.944,0,0,0-.87.314c-.029.033-.085.042-.144.069-.029-.311-.067-.6.361-.608-.075-.2-.138-.371-.205-.541-.229-.576-.314-.637-.917-.594a.614.614,0,0,0-.29.169c-.09.074-.149.191-.245.252a1.3,1.3,0,0,0-.6,1.078c-.029.334.035.4.38.4.388,0,.775.054,1.183.085a1.357,1.357,0,0,1-.811,1.048c-.1.036-.163.15-.243.229.074.072.148.145.225.215a1.353,1.353,0,0,0,.125.087,2.148,2.148,0,0,1-.443.366c-.432.186-.476.49-.335.879a.446.446,0,0,1,.01.064,9.45,9.45,0,0,0,11.115,7.322c.6-.125.646-.193.6-.822a.167.167,0,0,1,0-.032q.051-1.074.1-2.148a.274.274,0,0,1,.041-.153.824.824,0,0,0,.115-.943c.155.027.307.1.41.061a.46.46,0,0,1,.416.05,2.685,2.685,0,0,0,.659.118c.453.062.912.091,1.356.188a.662.662,0,0,1,.434.686c-.052.313-.3.354-.556.388-.1.013-.191.029-.347.053.216.1.375.167.521.254s.274.194.433.308l.549-.608c-.386-.193-.478-.474-.286-1.014l-1.32-.927.054-.113a2.142,2.142,0,0,1,.5.178c.376.249.38.259.634-.088.139-.19.275-.382.413-.573.12-.006.239-.041.252-.1a1.371,1.371,0,0,0-.025-.386,1.291,1.291,0,0,0,1.295-.282,5.593,5.593,0,0,1-.781-.051,10.514,10.514,0,0,1-1.331-.547c-.107-.049-.17-.193-.253-.293a1.264,1.264,0,0,1,.4-.1c.21.017.414.1.624.139.728.131,1.457.253,2.186.379l.035-.05-.893-.393a.914.914,0,0,1-.49.118,4.16,4.16,0,0,1-.661-.122c-.3-.071-.6-.157-.9-.236l.023-.1h.392c-.3-.3-.042-.478.151-.723-.2.062-.342.111-.484.147a.682.682,0,0,1-.869-.282c-.056-.092-.227-.129-.352-.163-.422-.114-.848-.214-1.271-.324-.035-.009-.089-.047-.09-.073,0-.295-.2-.215-.366-.191-.312.044-.622.1-1,.16.224-.285.526-.3.7-.607a1.46,1.46,0,0,1,1.134-.658c.234-.021.467-.049.731-.077-.155-.247.107-.518-.1-.751-.011-.012.026-.058.028-.089.006-.119.007-.239.01-.359-.121.027-.242.053-.362.081-.04.009-.079.022-.121.034a.985.985,0,0,1,.474-1.116,3.285,3.285,0,0,0,.409-.527l-.083-.069Zm-30.562-20.716a35.615,35.615,0,0,0-9.37,23.349h5.6a6.75,6.75,0,0,1,.238-.938,3.044,3.044,0,0,1,.612-1.168,1.923,1.923,0,0,0,.729-1.277,28.1,28.1,0,0,1,5.448-13.135c.515-.685,1.074-1.336,1.6-1.989Zm54.42,24.86c-.011.152-.017.268-.028.384-.093,1-.14,2-.29,2.984a28.448,28.448,0,0,1-4.528,11.653,1.134,1.134,0,0,0-.158.378c-.087.388-.128.787-.239,1.167-.3,1.042-.649,2.07-.94,3.115a7.518,7.518,0,0,0-.147,1.158,6.922,6.922,0,0,0,.924.193,1.541,1.541,0,0,1,1.087.336c.376.239.446.421.287.834-.092.236-.217.46-.3.627.364.365.7.706,1.069,1.075l1.95-2.153a3.75,3.75,0,0,1-.195-.585,4.112,4.112,0,0,1-.007-.6c-.622-.254-.7-.478-.378-1.042a1.568,1.568,0,0,1,.1-.165,3.031,3.031,0,0,0,.527-1.6c.028-.278.036-.558.068-.836a.707.707,0,0,1,.831-.526c.291.057.338.213.2.655.609.514.474,1.355.878,2A35.624,35.624,0,0,0-239.553,2144Zm6.855-1.4c0-.18.013-.34,0-.5-.163-1.647-.245-3.307-.513-4.937a34.509,34.509,0,0,0-5.056-13.077,1.128,1.128,0,0,0-.447-.337.29.29,0,0,0-.252.124,6.475,6.475,0,0,0-.22,1,.469.469,0,0,1-.239.373.674.674,0,0,1-.971-.089c-.221-.22-.456-.426-.683-.639-.518-.485-1.03-.978-1.556-1.454a2.581,2.581,0,0,0-.487-.308c-.26-.145-.526-.278-.788-.42a1.7,1.7,0,0,0-.389-.221,1.749,1.749,0,0,1-1.1-.681l-2.008,2.019A28.714,28.714,0,0,1-246.4,2142.6Zm-49.583-13.869a20.455,20.455,0,0,1,13.56-5.873v-6.6a27.114,27.114,0,0,0-18.231,7.809Zm32.712-10.27c.125-.029.185-.041.245-.056l.357-.1a1.285,1.285,0,0,0-.17-.362c-.318-.335-.66-.648-.986-.976a.5.5,0,0,0-.587-.123c-.3.113-.608.212-.913.313-.2.065-.363.008-.4-.2a2.653,2.653,0,0,0-.713-1.129,2.022,2.022,0,0,1-.222-.48,1.786,1.786,0,0,0-.227-.489c-.2-.21-.461-.354-.662-.56-.412-.423-.8-.868-1.2-1.3a8.434,8.434,0,0,1-.584-.645c-.31-.419-.214-.715.29-.875.284-.091.588-.114.881-.179.348-.077.692-.167,1.038-.251l-.01-.108a35.32,35.32,0,0,0-12.622-3.095l.393.442-.056.079c-.257-.1-.517-.189-.773-.291s-.5-.208-.8-.331v6.9a28.692,28.692,0,0,1,18.812,7.748l1.835-1.85c-.129-.018-.4.027-.547-.087-.749-.573-1.467-1.186-2.194-1.788A1.951,1.951,0,0,1-256.431,2118.464Zm-17.734,4.4a20.459,20.459,0,0,1,13.028,5.354.374.374,0,0,0,.071-.039q1.913-1.9,3.817-3.81c.057-.056.1-.23.062-.258a1.15,1.15,0,0,0-.4-.238c-.155.18-.236-.006-.3-.058q-.564-.456-1.1-.943c-.467-.422-.48-.528-.194-1.094.053-.1.1-.208.17-.339a27.075,27.075,0,0,0-15.153-5.17Zm-26.18,15.481c.03-.04.053-.073.079-.1.088-.112.177-.223.265-.334.117.1.293.174.342.3a10.138,10.138,0,0,1,.553,1.663c.112.577.141.653.712.472a.748.748,0,0,1,.7.072.426.426,0,0,0,.386-.068.418.418,0,0,0,.027-.654.5.5,0,0,1-.041-.7c.339-.482.665-.974,1.024-1.441a2.441,2.441,0,0,1,.523-.429c.316-.229.8-.38.927-.684a4.2,4.2,0,0,1,1.314-1.636,1.755,1.755,0,0,0,.453-.566,20.868,20.868,0,0,1,2.788-4.252c.053-.062.1-.129.139-.179l-4.671-4.663a27,27,0,0,0-6.352,12.565C-300.7,2137.5-300.7,2137.5-300.345,2138.344Zm24.752,17.139v-1.349a11.151,11.151,0,0,1-6.845-2.983l-5.5,5.52a2.264,2.264,0,0,1,.232.172,18.828,18.828,0,0,0,9.462,4.767c.388.075.509-.023.584-.459.088-.506.23-.613.733-.534.442.071.882.15,1.359.232,0-.353.016-.675-.008-.994-.01-.125-.119-.24-.164-.366-.029-.08-.052-.238-.031-.247.338-.14.161-.408.2-.651h-.571l-.018-.066.589-.3-.569-.19a3.118,3.118,0,0,0,.487-.535.58.58,0,0,0,0-.479c-.123-.236-.339-.422-.476-.654a.407.407,0,0,1,.022-.364A4.586,4.586,0,0,1-275.593,2155.483Zm-18.037,6.861a26.307,26.307,0,0,0,11.586,6.613,3.877,3.877,0,0,0-.637-.767c-.776-.666-.79-.8-.059-1.5l.023-.022a.734.734,0,0,0,.253-.865.332.332,0,0,1,.236-.478,7.587,7.587,0,0,1,2.8-.767.719.719,0,0,0,.752-.439.89.89,0,0,1,.429-.312c.194-.087.415-.112.614-.189a5.953,5.953,0,0,0,.542-.272,20.957,20.957,0,0,1-11.887-5.67Zm10.179-12.294c.008.012,0-.007-.015-.024a11.185,11.185,0,0,1-2.388-5.824,1.183,1.183,0,0,0-.112-.283c-.09.23.055.608-.416.4-.032-.015-.109.055-.158.095-.1.086-.2.178-.322.281a3.19,3.19,0,0,1-.267-.431c-.122-.294-.327-.357-.633-.354-1.829.014-3.659.005-5.489,0h-.371a18.611,18.611,0,0,0,4.688,11.637C-287.113,2153.725-285.292,2151.9-283.451,2150.05ZM-249.6,2139.8l-.09-.012a8.269,8.269,0,0,1-.092-.855c-.005-.761-.016-1.525.032-2.284.039-.6.168-1.2.246-1.8a1.208,1.208,0,0,0,0-.512,26.4,26.4,0,0,0-2.3-4.962c-.053-.087-.113-.17-.175-.263-.422.624-.84.757-1.26.336-.464-.467-.857-1.005-1.333-1.574.822.128.872,1.008,1.487,1.25a2.7,2.7,0,0,0-.3-.468c-.109-.146-.368-.209-.277-.488l.456.217.254-.856-2.492-3.03c-.243.369-.652.495-.653.857a2.665,2.665,0,0,0-.445.287c-1.126,1.111-2.244,2.231-3.364,3.348-.073.074-.142.153-.156.168.772,1.042,1.517,2.053,2.272,3.058a.512.512,0,0,0,.284.16,3.164,3.164,0,0,1,1.981,1.17c.212.285.411.579.615.869.16.228.312.423.659.316.1-.031.285.138.4.245.056.051.048.172.07.261l-.4.043c-.04,0-.081,0-.129.007a1.207,1.207,0,0,0,.514.872c.246.21.409.166.485-.15.067-.281.073-.575.125-.86.1-.552.453-.68.862-.292a7.6,7.6,0,0,1,.8.925.546.546,0,0,1,.075.419,4.266,4.266,0,0,0-.122,1.595.47.47,0,0,0,.4.469c.263.061.394-.128.438-.328.076-.342.086-.7.148-1.044a3.031,3.031,0,0,1,.212-.722c.035-.077.226-.132.332-.114a.352.352,0,0,1,.221.236,1.728,1.728,0,0,1-.148,1.19c-.172.317-.33.643-.47.976a.39.39,0,0,1-.378.283c-.863.045-1.183.562-.836,1.339.132.295.062.422-.22.592a1.223,1.223,0,0,0-.366.417c-.137.226-.218.488-.364.707-.192.29.046.491.12.718.021.066.2.111.315.111,1.281.007,2.561,0,3.842,0,.094,0,.187-.011.306-.019a26.036,26.036,0,0,0-.717-5.629l-.114-.011Q-249.227,2138.387-249.6,2139.8Zm-38.536-10,.165.177c.289.318.568.65,1.077.531.073-.017.163.048.246.062a1.712,1.712,0,0,0,.488.056c.279-.038.524-.066.577.325a1.328,1.328,0,0,1,1.176.332.823.823,0,0,0,.7.125,1.168,1.168,0,0,1,.711.039,2.317,2.317,0,0,1,1.325,1.41c.065.26.085.53.146.79a3.3,3.3,0,0,0,.15.428,30.9,30.9,0,0,1,2.814-1.319,30.107,30.107,0,0,1,2.969-.753v-7.671A19,19,0,0,0-288.136,2129.807Zm21.949,3.487c-.445-.387-.439-.58,0-.945.074-.062.173-.115.211-.2.248-.523.725-.579,1.217-.632a.927.927,0,0,0,.5-.17c.458-.422.886-.875,1.324-1.316-.234-.339-.351-.4-.725-.331a3.331,3.331,0,0,0-.394.128c-.179.055-.359.106-.541.16-.1-.481-.062-.569.3-.767a.713.713,0,0,0,.184-.129.811.811,0,0,1,1.058-.112q.3.15.611.29a1.479,1.479,0,0,0,.21.058l.029-.09a18.948,18.948,0,0,0-11.972-4.9v7.731c.68.123,1.347.23,2.008.368.6.125.685.053.61-.549-.013-.108-.009-.28.056-.326.317-.225.52-.577.918-.725a4.8,4.8,0,0,0,.888-.561l.12.05c-.033.388-.057.776-.1,1.163-.09.785-.875.868-1.411,1.348.427.092.781.175,1.138.244.246.047.483.083.614.348.04.082.158.135.25.182.265.135.543.246.8.391a1.408,1.408,0,0,0,.867.149C-266.835,2134.094-266.577,2133.633-266.187,2133.294Zm-28.354,27.842,4.53-4.546a20.412,20.412,0,0,1-5.106-12.633h-2.135A1.051,1.051,0,0,1-297,2145.2a2.4,2.4,0,0,0-.142.907,6.45,6.45,0,0,0,.275,1.969.718.718,0,0,1,.031.317c-.076.875-.14,1.752-.248,2.622a3.79,3.79,0,0,0,.212,1.8c.2.544.421,1.083.574,1.64a1.9,1.9,0,0,1,0,.851,5.25,5.25,0,0,1-.327.857l-.367-.095.718,1.34-.08.06-.685-.489a3.1,3.1,0,0,0,.452.444,1.493,1.493,0,0,1,.395.411,8.9,8.9,0,0,1,.532,1.38A6.907,6.907,0,0,0-294.541,2161.136Zm42.64-17.118c.248.622.475,1.21.717,1.791a.593.593,0,0,0,.556.376c.555.026.609.5.77.869a.593.593,0,0,1-.268.756c-.75.539-1.44,1.23-2.491,1.086a.376.376,0,0,0-.122.023c.112.777-.2,1.239-.492,1.086-.157.2-.321.38-.459.582a5.907,5.907,0,0,0-.549.887c-.17.38-.24.807-.416,1.184a9.265,9.265,0,0,1-.685,1.149,5.333,5.333,0,0,0-.5.64,1.764,1.764,0,0,1-1.009.981,2.556,2.556,0,0,0-.521.249c-.087.06-.121.2-.179.3a1.222,1.222,0,0,0,.39.117c.154-.009.3-.115.458-.138a1.015,1.015,0,0,0,1.011-.973c.048-.274.086-.549.129-.823l.08.07c.21-.161.423-.318.628-.486.082-.067.138-.166.217-.237.255-.231.395-.194.445.145a3.921,3.921,0,0,1-.1,2.376,3.153,3.153,0,0,0-.091.309c-.311.856-.614,1.715-.945,2.563a2.161,2.161,0,0,1-.394.585.542.542,0,0,1-.7.161c-.527-.288-.987-.012-1.549.108.407.4.782.723,1.108,1.092a.509.509,0,0,0,.755.091c.375-.23.76-.446,1.147-.654.108-.058.286-.134.357-.088.3.2.469,0,.607-.185a14.6,14.6,0,0,0,.972-1.4c.27-.461.466-.965.7-1.447.111-.224.234-.45.546-.354,2.119-3.316,4.087-10.109,3.7-12.79Zm-22.251,27.586v6.8a32.932,32.932,0,0,0,9.6-1.531c-.153-.059-.267-.108-.385-.146-.449-.144-.913-.253-1.348-.433-.586-.243-.672-.533-.336-1.083.171-.282.42-.516.612-.786.063-.088.12-.281.075-.329a7.03,7.03,0,0,0-.858-.807,4.817,4.817,0,0,0-1.915-.622c-.551-.133-.621-.314-.408-.825.072-.171.143-.476.061-.55a.861.861,0,0,0-.609-.155c-.789.081-1.574.217-2.363.3C-272.727,2171.514-273.434,2171.549-274.152,2171.6Zm-26.535-4.374,2.522-2.5a3.5,3.5,0,0,1-.864-.5c-.753-.766-1.443-1.595-2.188-2.37-.4-.415-.861-.771-1.3-1.151a.311.311,0,0,0-.482.012.419.419,0,0,1-.61.03q-1.161-.894-2.309-1.8c-.258-.2-.5-.426-.749-.64A33.015,33.015,0,0,0-300.687,2167.23Zm6.973-24.73h5.144l.018-.082a4.689,4.689,0,0,0-.653-.219.816.816,0,0,1-.69-.593c-.062-.2-.128-.388-.2-.58-.257-.718-.462-.821-1.186-.607a5.14,5.14,0,0,1-.53.137c-.247.045-.334-.131-.411-.321s.057-.261.187-.307a4.55,4.55,0,0,1,.82-.248.645.645,0,0,0,.567-.4c.138-.314.316-.61.445-.927a.993.993,0,0,0,.094-.544.843.843,0,0,1,.134-.763,1.929,1.929,0,0,0,.457-1.455c-.017-.28-.028-.5-.311-.636a.569.569,0,0,1-.232-.252,1.112,1.112,0,0,0-1.03-.6.341.341,0,0,0-.381.218c-.27.6-.552,1.188-.823,1.784a.841.841,0,0,0-.038.244c-.041.356-.07.713-.129,1.066-.015.091-.11.227-.185.239-.237.036-.264.206-.308.38-.076.3-.165.6-.229.905-.108.514-.2,1.032-.3,1.548a2.727,2.727,0,0,0,.65-1.855c.1.1.206.221.2.33a5.034,5.034,0,0,1-.176,1.194c-.15.443-.436.838-.615,1.273A8.785,8.785,0,0,0-293.714,2142.5Zm32.316,15.761a20.6,20.6,0,0,1-8.563,4.517l-.315.754c.461-.026.889-.052,1.317-.072a2,2,0,0,1,.7,0,3.073,3.073,0,0,0,1.618-.068.357.357,0,0,0,.335-.368c.016-.437.317-.637.671-.772a3.282,3.282,0,0,1,.536-.108,6.124,6.124,0,0,0,2.261-.9,18.575,18.575,0,0,0,1.51-1.189.611.611,0,0,0,.234-.434C-261.152,2159.18-261.28,2158.755-261.4,2158.261Zm-10.457-2.654c.021.288.032.541.06.791.017.147.018.343.108.42s.286.051.435.045c.113,0,.242-.095.332-.062a.662.662,0,0,0,.7-.2,1.675,1.675,0,0,1,.617-.374c.268-.059.421-.182.44-.427a1.526,1.526,0,0,0-.087-.548c-.092-.3-.008-.506.241-.551a1.355,1.355,0,0,0,.268-.106,1.114,1.114,0,0,0-.163-.26c-.357-.318-.326-.533.077-.795a4.619,4.619,0,0,0,.573-.522l-.056-.095c-.119.022-.265.008-.352.073a2.252,2.252,0,0,0-.424.437.47.47,0,0,1-.666.184,4.21,4.21,0,0,1-.538-.462l-.7.308a5.287,5.287,0,0,0,.443.518.541.541,0,0,1,.174.711.652.652,0,0,0-.074.428.892.892,0,0,1-.21,1.018c-.3.314-.366.346-.593-.034s-.475-.779-.729-1.2c-.135.187-.226.331-.336.458-.15.172-.368.316-.562.171a1.088,1.088,0,0,1-.267-.534c-.086-.269-.126-.553-.211-.822-.018-.055-.149-.106-.226-.1a5.791,5.791,0,0,0-.59.07c0,1-.01,1.973.006,2.95,0,.256-.141.567.18.763.023.013-.017.137-.033.208-.052.228-.107.454-.182.769a8.479,8.479,0,0,0,.979-.815,1.975,1.975,0,0,1,.951-.729c.222-.059.247-.218.172-.4a2.285,2.285,0,0,0-.156-.281C-272.507,2156.17-272.417,2155.892-271.855,2155.607Zm-23.336-13.092q.283-2.107.548-4.078c-.182.244-.436.177-.715.016-.559-.322-.936-.276-1.31.424a2.426,2.426,0,0,0-.164,1,1.467,1.467,0,0,1-.479,1.151.388.388,0,0,0-.058.322,9.393,9.393,0,0,0,.3.94c.032.089.129.216.2.218C-296.3,2142.523-295.736,2142.515-295.191,2142.515Zm34.015-10.293c0-.2,0-.376,0-.556,0-.232.1-.466.343-.382a3.412,3.412,0,0,1,.748.477c.007.005,0,.049-.013.06a.9.9,0,0,0-.354.9c0,.007-.01.018-.018.026-.164.159-.077.292.051.409.177.163.362.315.571.5l-.439.2,1.145.648c.088-.357-.113-.516-.265-.709a6.356,6.356,0,0,1-.39-.633c.429-.022.6.46,1.062.349a14.18,14.18,0,0,0-2.123-2.83.686.686,0,0,0-.66-.055,16.128,16.128,0,0,0-1.254,1.223c.1.067.168.139.244.153C-262.1,2132.077-261.676,2132.141-261.176,2132.222Zm-3.014,24.366c-.24.17-.511.259-.558.415a7.267,7.267,0,0,0-.244,1.385c-.024.253.38.458.587.308a3.521,3.521,0,0,0,.77-.67,2.538,2.538,0,0,1,.96-.91l-.643-.759c-.208.347-.435.608-.872.542Zm-5.428,4.5c-.165-.038-.335-.063-.495-.117a3.627,3.627,0,0,1-.767-.306.594.594,0,0,0-.765,0,1.376,1.376,0,0,1-1.142.314c-.239-.045-.361.1-.463.309a1.288,1.288,0,0,1-.345.382,1.477,1.477,0,0,1-.322.159A14.762,14.762,0,0,0-269.618,2161.091Zm15.37-46.721-.125.1c.13.173.227.445.4.5a1.183,1.183,0,0,1,.823.859.749.749,0,0,0,.137.217,11.2,11.2,0,0,0,2.114,1.981c.082-.076.153-.139.22-.206s.141-.15.264-.282Zm-4.443,46.591c-.4-.4-.746-.783-1.139-1.11-.108-.09-.373-.049-.538.01-.07.025-.084.248-.1.384-.016.17,0,.342,0,.53A4.493,4.493,0,0,0-258.691,2160.961Zm-8.889-.531.022-.146c-.25-.047-.5-.1-.75-.141-.353-.064-.708-.122-1.06-.19-.184-.036-.363-.11-.549-.127-.071-.006-.217.1-.214.15a.357.357,0,0,0,.148.272,5.5,5.5,0,0,0,1.3.377A2.178,2.178,0,0,0-267.58,2160.43Zm-40.071-16.516c.2.3.495.267.759.321a2.192,2.192,0,0,1,.591.178.885.885,0,0,0,1.262-.5ZM-251.6,2168.1c-.22.432-.432.849-.652,1.283.807.172,1.029.094,1.482-.488Zm-5.349-44.13.488-.41c-.38-.336-.735-.663-1.108-.968-.077-.063-.221-.044-.334-.063.018.106,0,.238.059.315C-257.545,2123.239-257.231,2123.617-256.946,2123.972Zm7.525-5.352-.471.328,1.62,1,.034-.04Zm-35.769,13.034c-.229-.326-.8-.519-1.766-.674.238.267.431.549.848.5.127-.016.264.078.4.1C-285.537,2131.615-285.363,2131.631-285.19,2131.654Zm-3.235-.11-.67-.693-.3.366C-289.093,2131.419-288.849,2131.738-288.425,2131.544Zm26.5,24.07.422.581.116-.013c.034-.213.067-.425.1-.637Zm9.1-27.808c.053.4.092.692.132,1l.475-.085Zm-18.052,23.757.124.046.4-.209c-.056-.217-.183-.354-.369-.24C-270.817,2151.219-270.823,2151.424-270.871,2151.563Zm23.12-31.072-.064.046.683.852.063-.051Z" fill="#bd0559"/>
    <path id="Path_289" data-name="Path 289" d="M-339.458,2153.1q.048-.46.1-.921l.041-.012c.028.172.058.343.085.515a13.258,13.258,0,0,0,2.716,5.919,48.343,48.343,0,0,0,4.353,4.763,40.392,40.392,0,0,1,4.428,4.953c.832,1.177,1.6,2.4,2.428,3.578.342.489.758.926,1.141,1.386l.106-.067a4.531,4.531,0,0,0-.292-.6,14.113,14.113,0,0,1-1.906-4.28,17.176,17.176,0,0,1-.3-7.361c.289-1.716.674-3.416,1-5.125a15.637,15.637,0,0,0,.255-4.911,1.748,1.748,0,0,1,.01-.191c.108.236.184.394.252.555a25.616,25.616,0,0,1,1.78,6.68c.368,2.88.632,5.773.927,8.662a50.687,50.687,0,0,0,1.112,7.524,19.167,19.167,0,0,0,1.057,2.728c.325.757.707,1.491,1.087,2.283a.628.628,0,0,1-.137-.03c-2.9-1.889-5.825-3.75-8.7-5.679a34.321,34.321,0,0,1-6.318-5.35,19.585,19.585,0,0,1-4.935-9.876c-.122-.676-.154-1.367-.229-2.051-.014-.127-.038-.252-.056-.377Z" fill="#bd0559"/>
    <path id="Path_290" data-name="Path 290" d="M-210.28,2154.776c-.081.638-.147,1.278-.246,1.913a20.479,20.479,0,0,1-3.566,8.624,28.455,28.455,0,0,1-7.757,7.441q-3.752,2.485-7.5,4.979c-.4.267-.775.573-1.231.834a1.5,1.5,0,0,1,.1-.356,20.5,20.5,0,0,0,2.54-7.832c.347-2.751.557-5.52.8-8.284a42.571,42.571,0,0,1,1.365-8.746c.338-1.119.781-2.207,1.178-3.308.01-.028.04-.049.087-.1a26.46,26.46,0,0,0,.762,7.908,33.646,33.646,0,0,1,.731,5.169,15.915,15.915,0,0,1-2.537,9.215c-.067.109-.134.219-.2.328l.063.084a1.319,1.319,0,0,0,.317-.234c.8-1.12,1.6-2.242,2.383-3.374a41.467,41.467,0,0,1,3.811-4.96c.723-.766,1.5-1.48,2.246-2.227a33.162,33.162,0,0,0,3.885-4.525,14.6,14.6,0,0,0,2.575-6.278l.2,1.665Z" fill="#bd0559"/>
    <path id="Path_291" data-name="Path 291" d="M-339.458,2140.567c.063-.6.1-1.2.2-1.789a27.534,27.534,0,0,1,1.354-5.466.945.945,0,0,1,.16-.281c-.052.457-.119.912-.154,1.37a16.4,16.4,0,0,0,1.453,7.659c.68,1.625,1.412,3.229,2.147,4.831a33.292,33.292,0,0,1,2.351,7.787c.2,1.051.538,2.077.819,3.113a4.859,4.859,0,0,0,.185.472c.289-.035.18-.192.148-.329-.2-.846-.445-1.685-.578-2.541a13.837,13.837,0,0,1,.471-5.874,26.516,26.516,0,0,1,2.815-6.312c.371-.631.732-1.27,1.154-1.866a15.574,15.574,0,0,0,2.259-5.136.518.518,0,0,1,.133-.254c0,1.079.084,2.167-.017,3.237a48.646,48.646,0,0,1-1.2,7.639c-.738,2.849-1.539,5.683-2.378,8.5a16.709,16.709,0,0,0-.849,5.968c.063.89.168,1.777.253,2.666.009.084.015.169.031.35a2.312,2.312,0,0,1-.374-.383,38.823,38.823,0,0,0-4.257-5.71,32.163,32.163,0,0,1-3.536-4.879,19.759,19.759,0,0,1-1.745-5.108,29.484,29.484,0,0,1-.792-5.321,2.082,2.082,0,0,0-.05-.28Z" fill="#bd0559"/>
    <path id="Path_292" data-name="Path 292" d="M-234.867,2195.726a13.284,13.284,0,0,1-2.586,2.6,18.894,18.894,0,0,1-7.909,3.685,17.244,17.244,0,0,1-8.265-.443,26.311,26.311,0,0,1-8.2-4.117c-.994-.718-2.013-1.4-3.012-2.111a7.455,7.455,0,0,0-5.242-1.39c-.608.062-1.215.132-1.834.253a58.1,58.1,0,0,1,7.579,4.445,55.571,55.571,0,0,1,6.833,5.651l-2.662,2.4a3.961,3.961,0,0,0-.242-.324,68.422,68.422,0,0,0-8.205-7.659,35.093,35.093,0,0,0-5.51-3.524.777.777,0,0,0-.707-.062,21.732,21.732,0,0,0-2.558,1.2,44.506,44.506,0,0,0-10.026,8.37c-.589.671-1.141,1.372-1.733,2.087l-2.726-2.249a50.122,50.122,0,0,1,14.453-10.321l.005-.1c-.488-.09-.973-.208-1.465-.264a7.731,7.731,0,0,0-4.928,1.19c-1.188.713-2.317,1.525-3.456,2.316a37.3,37.3,0,0,1-5.833,3.55,18.969,18.969,0,0,1-9.292,1.716,17.154,17.154,0,0,1-5.988-1.689,17.633,17.633,0,0,1-5.91-4.238,2.206,2.206,0,0,1-.331-.456c.067.034.138.064.2.1a15.789,15.789,0,0,0,7.183,2.283,18.028,18.028,0,0,0,8.207-1.125c1.709-.674,3.368-1.471,5.058-2.194a41.187,41.187,0,0,1,8-2.653,20.766,20.766,0,0,1,8.586-.052c.638.137,1.274.3,1.9.493a2.1,2.1,0,0,0,1.963-.194,3.328,3.328,0,0,1,1.234-.332A26.093,26.093,0,0,1-255.9,2194.9c1.517.73,3.12,1.28,4.674,1.935a17.382,17.382,0,0,0,4.708,1.3,17.1,17.1,0,0,0,11.549-2.356C-234.94,2195.761-234.9,2195.745-234.867,2195.726Z" fill="#bd0559"/>
    <path id="Path_293" data-name="Path 293" d="M-237.694,2185.69a5.056,5.056,0,0,0,.761-.383,15.338,15.338,0,0,0,1.324-1.076,30.164,30.164,0,0,1,6.692-4.458c2.232-1.157,4.483-2.281,6.689-3.488a18.049,18.049,0,0,0,6.159-5.356c.539-.757.984-1.581,1.469-2.37-.027.18-.054.391-.093.6s-.091.443-.144.662a19.8,19.8,0,0,1-4.177,8.026,26.335,26.335,0,0,1-12.076,8.454,35.679,35.679,0,0,1-4.208.957,70.209,70.209,0,0,0-7.3,1.62c-.151.047-.3.092-.436.133.365-.385.735-.771,1.1-1.161a19.82,19.82,0,0,0,4.057-6.87c.821-2.238,1.55-4.51,2.336-6.761a23.458,23.458,0,0,1,2.658-5.643c1.235-1.8,2.555-3.54,3.839-5.3.069-.095.153-.179.268-.312a.682.682,0,0,1-.015.149,21.247,21.247,0,0,0-1.579,5.7c-.356,2.218-.668,4.444-1.082,6.651a17,17,0,0,1-4.528,8.407C-236.537,2184.47-237.109,2185.067-237.694,2185.69Z" fill="#bd0559"/>
    <path id="Path_294" data-name="Path 294" d="M-311.815,2186.127c-.165-.151-.329-.3-.494-.453a24.453,24.453,0,0,1-3.1-3.234,17.216,17.216,0,0,1-3.184-7.734c-.389-2.289-.754-4.582-1.17-6.866a16.417,16.417,0,0,0-1.236-3.893.191.191,0,0,1,0-.173c.52.65,1.049,1.294,1.559,1.952a33.214,33.214,0,0,1,4.532,7.3c.716,1.688,1.269,3.446,1.87,5.182a38.936,38.936,0,0,0,2.662,6.423,16.4,16.4,0,0,0,3.751,4.6c.047.039.106.064.117.131-.915-.225-1.823-.491-2.747-.667-1.964-.373-3.938-.694-5.906-1.044a22.231,22.231,0,0,1-7.037-2.127,26.543,26.543,0,0,1-11.8-12.189,16.923,16.923,0,0,1-1.174-3.644c-.017-.082-.019-.168-.035-.318a1.014,1.014,0,0,1,.107.139,16.052,16.052,0,0,0,6.222,6.731,63.833,63.833,0,0,0,6.4,3.341,36.567,36.567,0,0,1,6.2,3.553c.961.725,1.893,1.489,2.867,2.2a17.212,17.212,0,0,0,1.515.89Z" fill="#bd0559"/>
    <path id="Path_295" data-name="Path 295" d="M-224.2,2184.637c-.376.634-.717,1.291-1.133,1.9a20.768,20.768,0,0,1-8.2,6.858,19.272,19.272,0,0,1-10.568,1.842,65.49,65.49,0,0,1-8.418-1.6c-2.02-.465-4.054-.871-6.084-1.293-.363-.076-.737-.1-1.143-.155,1.258-.358,2.476-.669,3.67-1.052a15.778,15.778,0,0,0,5.991-3.322c1.242-1.144,2.422-2.356,3.623-3.544a76.64,76.64,0,0,1,7.052-6.392,17.2,17.2,0,0,1,1.677-1.158c-.075.108-.148.217-.224.325a29.586,29.586,0,0,0-2.356,4.327c-.727,1.5-1.427,3.015-2.271,4.446a11.37,11.37,0,0,1-6.783,5.13c-.6.181-1.185.384-1.776.58a2.922,2.922,0,0,0-.281.124l.017.094c.557-.059,1.119-.087,1.669-.182,1.271-.22,2.528-.537,3.8-.7,2.219-.278,4.447-.485,6.674-.687a45.483,45.483,0,0,0,7.336-1.047,14.289,14.289,0,0,0,7.635-4.547Z" fill="#bd0559"/>
    <path id="Path_296" data-name="Path 296" d="M-325.365,2185.334a13.6,13.6,0,0,0,3.768,2.905,17.41,17.41,0,0,0,6.042,1.85c2.6.307,5.2.523,7.808.7a54.24,54.24,0,0,1,8.105,1.144,13.049,13.049,0,0,0,1.563.161l.034-.111a2.074,2.074,0,0,0-.369-.19c-.6-.169-1.2-.315-1.8-.484a10.916,10.916,0,0,1-6.42-4.585c-.871-1.338-1.634-2.753-2.377-4.169a53.767,53.767,0,0,0-2.889-5.278c.087.056.176.112.262.171a56.7,56.7,0,0,1,6.977,5.833c1.335,1.268,2.678,2.527,3.981,3.826a17.484,17.484,0,0,0,7.23,4.28c1.125.355,2.282.612,3.424.914a.26.26,0,0,1,.158.1c-.143.036-.284.077-.428.1a3.389,3.389,0,0,1-.477.076,28.393,28.393,0,0,0-4.978,1.04c-2.425.575-4.842,1.2-7.289,1.661a21.257,21.257,0,0,1-9.54-.146,20.5,20.5,0,0,1-12.4-9.026c-.144-.226-.264-.467-.393-.7C-325.383,2185.4-325.371,2185.375-325.365,2185.334Z" fill="#bd0559"/>
    <path id="Path_297" data-name="Path 297" d="M-212.18,2132.147c.289.848.614,1.686.86,2.547a23.55,23.55,0,0,1,.73,8.663,25.806,25.806,0,0,1-2.856,9.875,12.967,12.967,0,0,1-1.193,1.72c-1.673,2.188-3.366,4.361-5.037,6.55-.474.621-.9,1.28-1.4,2,.038-.484.069-.883.1-1.283a19.727,19.727,0,0,0-.044-5.15,24.9,24.9,0,0,0-.86-3.131,84.747,84.747,0,0,1-2.89-10.8c-.337-1.849-.577-3.718-.8-5.586a19.648,19.648,0,0,1-.015-2.316l.08,0c.191.576.361,1.16.577,1.727a30.786,30.786,0,0,0,2.479,4.7c.972,1.634,1.961,3.264,2.822,4.957a12.824,12.824,0,0,1,1.3,5.894,18.585,18.585,0,0,1-.646,4.451c-.033.137-.044.279-.066.42l.126.052a2.386,2.386,0,0,0,.29-.544c.466-1.955.917-3.913,1.367-5.871a32.159,32.159,0,0,1,2.22-6.109,39.763,39.763,0,0,0,2.264-5.89,15.781,15.781,0,0,0,.494-6.642,1.444,1.444,0,0,1,0-.208Z" fill="#bd0559"/>
    <path id="Path_298" data-name="Path 298" d="M-217.9,2139.6a1.2,1.2,0,0,0,.043-.327,53.688,53.688,0,0,1-.245-11.627c.117-1.435.327-2.864.437-4.3a14.974,14.974,0,0,0-.048-2.127,12.608,12.608,0,0,0-1.025-4.534c-.207-.446-.458-.872-.722-1.368a3.45,3.45,0,0,1,.32.236,3.771,3.771,0,0,1,.454.457,22.672,22.672,0,0,1,4.365,8.477,21.745,21.745,0,0,1-.485,12.549c-.49,1.386-1.07,2.742-1.547,4.132a39.98,39.98,0,0,0-1.371,5.593c-.067-.3-.138-.591-.2-.888a16.859,16.859,0,0,0-2.766-6.2c-1.333-1.916-2.72-3.795-4.135-5.651a25.885,25.885,0,0,1-4.729-10.424c-.04-.185-.07-.371-.121-.649.318.467.57.863.849,1.24a26.117,26.117,0,0,0,3.9,3.935,32.083,32.083,0,0,1,4.016,3.916,13.416,13.416,0,0,1,1.74,3,20.13,20.13,0,0,1,1.007,4.022c.039.176.092.35.138.525Z" fill="#bd0559"/>
    <path id="Path_299" data-name="Path 299" d="M-332.138,2147.5c-.154-.832-.27-1.607-.443-2.369a41.539,41.539,0,0,0-1.941-5.7,31.871,31.871,0,0,1-1.744-5.626,22.44,22.44,0,0,1-.226-4.247,18.562,18.562,0,0,1,2.7-9.471c.743-1.256,1.628-2.427,2.445-3.64a3.258,3.258,0,0,0,.187-.374l.16.143c-.04.079-.075.16-.121.235a10.814,10.814,0,0,0-1.49,4.79,27.864,27.864,0,0,0,.289,5.857,44.234,44.234,0,0,1,.608,6.871c-.045,1.354-.181,2.705-.279,4.057-.049.676-.111,1.352-.152,2.028a1.491,1.491,0,0,0,.082.391l.133,0a10.029,10.029,0,0,0,.211-1.048,13.475,13.475,0,0,1,3.505-7.607,45.223,45.223,0,0,1,4.365-4.3,12.948,12.948,0,0,0,3.071-3.65c-.024.177-.046.354-.073.53-.029.192-.059.383-.1.573a23.609,23.609,0,0,1-3.893,9.192c-1.457,2.053-2.9,4.117-4.29,6.214a19.213,19.213,0,0,0-2.789,6.17C-332,2146.827-332.059,2147.142-332.138,2147.5Z" fill="#bd0559"/>
    <path id="Path_300" data-name="Path 300" d="M-229.383,2107.04a10.552,10.552,0,0,1,4.822,2.595,13.79,13.79,0,0,1,4.43,7.581,23.874,23.874,0,0,1,.263,5.595c-.066,1.828-.151,3.656-.154,5.483,0,.951.152,1.9.234,2.825a.5.5,0,0,1-.065-.088,16.55,16.55,0,0,0-4.12-4.918c-1.743-1.454-3.543-2.839-5.3-4.28a17.181,17.181,0,0,1-3.768-4,17.471,17.471,0,0,1-2.239-5.87c-.046-.22-.086-.443-.126-.664,0-.016.012-.035,0-.006.429.656.835,1.365,1.327,2.008a17.912,17.912,0,0,0,4.1,3.563c1.335.943,2.7,1.851,3.953,2.9a12.841,12.841,0,0,1,3.766,4.765c.134.314.32.606.482.907l.086-.013a.518.518,0,0,0,0-.2c-1.626-3.556-2.333-7.387-3.327-11.131a14.047,14.047,0,0,0-1.446-3.88,10.291,10.291,0,0,0-2.712-2.994C-229.226,2107.179-229.272,2107.134-229.383,2107.04Z" fill="#bd0559"/>
    <path id="Path_301" data-name="Path 301" d="M-328.476,2126.286c.058-.136.115-.273.175-.409a15.51,15.51,0,0,1,4.958-6.209c1.006-.757,2.038-1.478,3.057-2.217,2.088-1.514,4.046-3.147,5.048-5.644a9.3,9.3,0,0,1-.367,2.659,15.82,15.82,0,0,1-3.643,6.312,39.86,39.86,0,0,1-5.641,4.954,19.221,19.221,0,0,0-5.25,5.969c-.029.054-.061.107-.126.22,0-.648-.046-1.234.008-1.811a24.264,24.264,0,0,0-.058-4.477,30.36,30.36,0,0,1,.208-8.2,13.278,13.278,0,0,1,7.815-9.266c.282-.1.568-.186.894-.293-.037.065-.044.094-.063.108a9.434,9.434,0,0,0-3.57,5.231c-.486,1.679-.849,3.4-1.2,5.111a43.974,43.974,0,0,1-1.887,6.29c-.175.473-.291.967-.428,1.453a.748.748,0,0,0,0,.2Z" fill="#bd0559"/>
    <path id="Path_302" data-name="Path 302" d="M-225.831,2117.918c-.584-.45-1.178-.887-1.751-1.35a48.044,48.044,0,0,1-10.4-11.562,2.148,2.148,0,0,0-.284-.348q-1.629-1.657-3.266-3.308a2.348,2.348,0,0,0-.286-.214l.063-.081c.531.207,1.065.407,1.594.621,1.563.632,3.154,1.205,4.679,1.918a15.213,15.213,0,0,1,7.252,7.418,28.324,28.324,0,0,1,1.872,5.276c.118.443.314.866.474,1.3.036.095.073.191.11.286Z" fill="#bd0559"/>
    <path id="Path_303" data-name="Path 303" d="M-324.569,2118.562c.588-1.95,1.094-4,1.824-5.966a14.681,14.681,0,0,1,6.576-7.771,43.3,43.3,0,0,1,6.253-2.817q.391-.152.783-.3c.018-.007.041,0,.1.006-.226.211-.437.4-.644.6a39.435,39.435,0,0,0-4.764,5.681c-.614.857-1.237,1.708-1.82,2.587a18.525,18.525,0,0,1-3.353,3.779C-321.28,2115.8-322.965,2117.2-324.569,2118.562Z" fill="#bd0559"/>
    <path id="Path_304" data-name="Path 304" d="M-261.922,2155.614l.639-.069c-.034.212-.067.424-.1.637l-.116.013Z" fill="#bd0559"/>
    <path id="Path_305" data-name="Path 305" d="M-270.871,2151.563c.048-.139.054-.344.15-.4.186-.114.313.023.369.24l-.4.209Z" fill="#bd0559"/>
    <path id="Path_306" data-name="Path 306" d="M-247.751,2120.491l.682.847-.063.051-.683-.852Z" fill="#bd0559"/>
    <path id="Path_307" data-name="Path 307" d="M-314.314,2156.546a1.89,1.89,0,0,1-.3-.464c-.242-.843-.459-1.694-.635-2.555a5.9,5.9,0,0,1,1.027,2.974Z" fill="#bd0559"/>
    <path id="Path_308" data-name="Path 308" d="M-279.065,2143.154a1.547,1.547,0,0,1-.1,1.408c-.016.046-.068.081-.105.119-.25.261-.495.527-.753.779-.129.126-.29.217-.425.338a.52.52,0,0,0-.116.206c-.174.459-.4.5-.812.27a1.177,1.177,0,0,0-1.267-.112,1.5,1.5,0,0,1-.474.1,3.4,3.4,0,0,1,.064-.486,2.338,2.338,0,0,1,.976-1.24c.026-.019.058-.047.084-.045.625.068.95-.446,1.385-.733a4.393,4.393,0,0,0,.523-.575,5.47,5.47,0,0,1,.5-.388l.024.118.5.252Z" fill="#bd0559"/>
    <path id="Path_309" data-name="Path 309" d="M-281.721,2141.755c.4-.023.8-.062,1.2-.059.113,0,.324.134.32.2a.953.953,0,0,1-.175.589,9.735,9.735,0,0,1-.944.717c-.152.116-.283.261-.437.373a1.8,1.8,0,0,1-.327.151c-.043-.106-.086-.213-.134-.33-.2.2-.453.2-.766-.005l.772-1.084c.215.118.434.335.634.319s.36-.277.555-.444l-.749-.324Z" fill="#bd0559"/>
    <path id="Path_310" data-name="Path 310" d="M-279.054,2143.166c-.325-.257-.556-.628-.969-.786-.041-.016-.053-.233-.008-.322.081-.162.252-.3.41-.125a.485.485,0,0,0,.461.17c.29-.021.386.217.4.45s.065.539-.3.6Z" fill="#bd0559"/>
    <path id="Path_311" data-name="Path 311" d="M-279.824,2140.871c-.1-.009-.278-.025-.457-.039s-.277-.1-.191-.294c.056-.126.12-.249.181-.374a.447.447,0,0,1,.809-.115.283.283,0,0,1-.039.465A2.564,2.564,0,0,0-279.824,2140.871Z" fill="#bd0559"/>
    <path id="Path_312" data-name="Path 312" d="M-276.12,2150.463a1.734,1.734,0,0,1,.373.306.569.569,0,0,1,.106.417.486.486,0,0,1-.358.234c-.068.007-.222-.191-.225-.3A3.439,3.439,0,0,1-276.12,2150.463Z" fill="#bd0559"/>
    <path id="Path_313" data-name="Path 313" d="M-278.882,2140.649V2141l-.37.3c-.044-.052-.193-.145-.187-.227C-279.417,2140.758-279.153,2140.7-278.882,2140.649Z" fill="#bd0559"/>
    <path id="Path_314" data-name="Path 314" d="M-279.316,2140.49c0-.216-.011-.408.006-.6a.211.211,0,0,1,.14-.147c.049-.006.127.066.16.122C-278.829,2140.181-278.953,2140.454-279.316,2140.49Z" fill="#bd0559"/>
    <path id="Path_315" data-name="Path 315" d="M-279.283,2141.524l-.478.3-.061-.1.432-.356Z" fill="#bd0559"/>
    <path id="Path_316" data-name="Path 316" d="M-277.187,2157.882a.6.6,0,0,1-.282-.039.331.331,0,0,1-.175-.166c-.052-.132.336-.764.474-.817a1.5,1.5,0,0,0,.253-.133.562.562,0,0,1,.764.162c.025.043.055.109.039.146a1.758,1.758,0,0,1-.34.667A1.737,1.737,0,0,1-277.187,2157.882Z" fill="#bd0559"/>
    <path id="Path_317" data-name="Path 317" d="M-253.568,2130.39l.641.2c.021-.165.04-.311.06-.473a8.915,8.915,0,0,1,1.252.41,1.4,1.4,0,0,1,.558.588c.257.482.428,1.009.679,1.5.238.459-.073.8-.2,1.182-.006.018-.321,0-.36-.068a8.028,8.028,0,0,0-2.2-2.234A1.486,1.486,0,0,1-253.568,2130.39Z" fill="#bd0559"/>
    <path id="Path_318" data-name="Path 318" d="M-257.339,2131.687c.232-.1.452-.151.607.074a.34.34,0,0,1-.118.294C-257.115,2132.1-257.248,2131.925-257.339,2131.687Z" fill="#bd0559"/>
    <path id="Path_319" data-name="Path 319" d="M-266.654,2131.267c.445.016.445.016.6-.521l.447.051c-.109.214-.19.39-.286.557-.166.287-.341.568-.512.852-.011.018-.015.041-.027.058-.123.193-.256.423-.515.317-.063-.026-.047-.342-.005-.509A7.778,7.778,0,0,1-266.654,2131.267Z" fill="#bd0559"/>
    <path id="Path_320" data-name="Path 320" d="M-266.116,2129.734a1.757,1.757,0,0,1,1.421.322.219.219,0,0,0,.025.02c.1.073.354-.067.3.168-.023.09-.273.12-.418.181-.2.086-.4.174-.582.25Z" fill="#bd0559"/>
    <path id="Path_321" data-name="Path 321" d="M-249.95,2146.15c0-.339.089-.528.348-.55.237-.02.3.156.31.357.009.281-.14.5-.345.49A.286.286,0,0,1-249.95,2146.15Z" fill="#bd0559"/>
  </g>
</svg>
